<?xml version="1.0" standalone="no"?>
<svg
  width="600"
  height="600"
  viewBox="0 0 600 600"
  xmlns="http://www.w3.org/2000/svg"
>
  <g transform="translate(300,300)">
    <path d="M103.2,-163.3C139.8,-137.1,179.5,-118.6,204.9,-86.6C230.3,-54.6,241.3,-9.2,229.5,28.9C217.6,67,182.9,97.7,152.6,131.8C122.3,165.8,96.5,203.3,59.7,223.2C22.9,243.1,-24.9,245.3,-73.2,236.8C-121.5,228.3,-170.3,209.1,-191.9,172.7C-213.4,136.3,-207.7,82.7,-214.2,31.3C-220.7,-20,-239.5,-69,-230.7,-112.5C-222,-156,-185.6,-194.1,-142.5,-217.3C-99.5,-240.5,-49.7,-248.7,-8.2,-236C33.3,-223.2,66.7,-189.4,103.2,-163.3Z" fill="#13c0e5" />
  </g>
</svg>
  